HW8
…
# Creating large tibble
num_sub_tibble <- bind_rows(bike_sub_sum, rain_sub_sum, snow_sub_sum, temp_sub_sum,
                            humidity_sub_sum, wind_sub_sum, visibility_sub_sum,
                            dew_sub_sum, solar_sub_sum)
num_sub_tibble

# A tibble: 3,285 × 6
   date        mean median   var    sd   IQR
   <date>     <dbl>  <dbl> <dbl> <dbl> <dbl>
 1 2017-12-01  9539   9539    NA    NA     0
 2 2017-12-02  8523   8523    NA    NA     0
 3 2017-12-03  7222   7222    NA    NA     0
 4 2017-12-04  8729   8729    NA    NA     0
 5 2017-12-05  8307   8307    NA    NA     0
 6 2017-12-06  6669   6669    NA    NA     0
 7 2017-12-07  8549   8549    NA    NA     0
 8 2017-12-08  8032   8032    NA    NA     0
 9 2017-12-09  7233   7233    NA    NA     0
10 2017-12-10  3453   3453    NA    NA     0
# ℹ 3,275 more rows
…
# Creating first recipe object
recipe1 <- recipe(bike_count ~ ., data = bike_train) |>
  step_date(date, features = "dow") |>
  step_mutate(weekend_weekday = factor(
    if_else(date_dow %in% c("Sun", "Sat"), "Weekend", "Weekday"))) |>
  step_rm(date, date_dow) |>
  step_normalize(all_numeric()) |>
  step_dummy(season, holiday, weekend_weekday)
  
# Test recipe to make sure it is working properly 
test_recipe <- prep(recipe1)
trans_data <- bake(test_recipe, new_data = NULL)
trans_data

# A tibble: 273 × 14
       rain   snow temp_c humidity wind_speed visibility dew_point solar_rads
      <dbl>  <dbl>  <dbl>    <dbl>      <dbl>      <dbl>     <dbl>      <dbl>
 1  1.39    -0.207  0.129   0.812      0.178       0.267     0.328     0.853 
 2 -0.309   -0.207  1.65   -0.202     -0.184       1.14      1.34      1.10  
 3  0.00134  6.39  -1.25    1.28      -0.893      -1.60     -0.707    -1.57  
 4 -0.309   -0.207  0.577   0.156     -0.218      -1.87      0.567     1.01  
 5 -0.309   -0.207  1.05    0.860      0.297       0.427     1.16     -0.301 
 6 -0.309    0.644 -0.836   0.609     -1.20       -1.25     -0.495    -1.33  
 7 -0.218   -0.207  0.815   0.564      0.255      -0.605     0.780     0.0113
 8 -0.309   -0.207  1.58   -0.0892    -0.956       1.09      1.28      1.22  
 9 -0.0807  -0.207  1.52    0.0121    -0.0932      1.12      1.32     -0.536 
10  0.375   -0.207  0.407   2.10      -0.692      -0.677     0.902    -1.03  
# ℹ 263 more rows
# ℹ 6 more variables: bike_count <dbl>, season_Spring <dbl>,
#   season_Summer <dbl>, season_Winter <dbl>, holiday_No.Holiday <dbl>,
#   weekend_weekday_Weekend <dbl>
…
# Test recipe to make sure it is working
test_recipe2 <- prep(recipe2)
trans_data2 <- bake(test_recipe2, new_data = NULL)
trans_data2

# A tibble: 273 × 24
       rain   snow temp_c humidity wind_speed visibility dew_point solar_rads
      <dbl>  <dbl>  <dbl>    <dbl>      <dbl>      <dbl>     <dbl>      <dbl>
 1  1.39    -0.207  0.129   0.812      0.178       0.267     0.328     0.853 
 2 -0.309   -0.207  1.65   -0.202     -0.184       1.14      1.34      1.10  
 3  0.00134  6.39  -1.25    1.28      -0.893      -1.60     -0.707    -1.57  
 4 -0.309   -0.207  0.577   0.156     -0.218      -1.87      0.567     1.01  
 5 -0.309   -0.207  1.05    0.860      0.297       0.427     1.16     -0.301 
 6 -0.309    0.644 -0.836   0.609     -1.20       -1.25     -0.495    -1.33  
 7 -0.218   -0.207  0.815   0.564      0.255      -0.605     0.780     0.0113
 8 -0.309   -0.207  1.58   -0.0892    -0.956       1.09      1.28      1.22  
 9 -0.0807  -0.207  1.52    0.0121    -0.0932      1.12      1.32     -0.536 
10  0.375   -0.207  0.407   2.10      -0.692      -0.677     0.902    -1.03  
# ℹ 263 more rows
# ℹ 16 more variables: bike_count <dbl>, season_Spring <dbl>,
#   season_Summer <dbl>, season_Winter <dbl>, holiday_No.Holiday <dbl>,
#   weekend_weekday_Weekend <dbl>, season_Spring_x_holiday_No.Holiday <dbl>,
#   season_Summer_x_holiday_No.Holiday <dbl>,
#   season_Winter_x_holiday_No.Holiday <dbl>, season_Spring_x_temp_c <dbl>,
#   season_Summer_x_temp_c <dbl>, season_Winter_x_temp_c <dbl>, …
…
# Test recipe to make sure it is working
test_recipe3 <- prep(recipe3)
trans_data3 <- bake(test_recipe3, new_data = NULL)
trans_data3

# A tibble: 273 × 32
   bike_count season_Spring season_Summer season_Winter holiday_No.Holiday
        <dbl>         <dbl>         <dbl>         <dbl>              <dbl>
 1     0.351              1             0             0                  1
 2     0.352              0             1             0                  1
 3    -1.40               0             0             1                  1
 4     0.901              1             0             0                  1
 5     1.14               0             0             0                  1
 6    -0.939              0             0             1                  0
 7     0.790              1             0             0                  1
 8     0.963              0             1             0                  1
 9    -0.0558             0             1             0                  1
10    -0.0428             1             0             0                  1
# ℹ 263 more rows
# ℹ 27 more variables: weekend_weekday_Weekend <dbl>,
#   season_Spring_x_holiday_No.Holiday <dbl>,
#   season_Summer_x_holiday_No.Holiday <dbl>,
#   season_Winter_x_holiday_No.Holiday <dbl>, season_Spring_x_temp_c <dbl>,
#   season_Summer_x_temp_c <dbl>, season_Winter_x_temp_c <dbl>,
#   season_Spring_x_holiday_No.Holiday_x_temp_c <dbl>, …
…
